…
## Examples

``` r
try({load_aupvb_player_info(2024)})
#> Rows: 2904 Columns: 53
#> ── Column specification ────────────────────────────────────────────────────────
#> Delimiter: ","
#> chr  (17): first_name, last_name, primary_position_position_lk, primary_posi...
#> dbl  (33): season, week_number, game_number, rank, rank_change, cumulative_p...
#> lgl   (2): played_this_match, is_home_team
#> dttm  (1): game_date
#> 
#> ℹ Use `spec()` to retrieve the full column specification for this data.
#> ℹ Specify the column types or set `show_col_types = FALSE` to quiet this message.
#> # A tibble: 648 × 53
#>    season week_number game_number game_date            rank rank_change
#>     <dbl>       <dbl>       <dbl> <dttm>              <dbl>       <dbl>
#>  1   2024           1           1 2024-10-03 00:00:00    43          -1
#>  2   2024           1           1 2024-10-03 00:00:00    37           4
#>  3   2024           1           1 2024-10-03 00:00:00    32           0
#>  4   2024           1           1 2024-10-03 00:00:00     4          -1
#>  5   2024           1           1 2024-10-03 00:00:00    26          -1
#>  6   2024           1           1 2024-10-03 00:00:00     6           0
#>  7   2024           1           1 2024-10-03 00:00:00    44          -1
#>  8   2024           1           1 2024-10-03 00:00:00    13           1
#>  9   2024           1           1 2024-10-03 00:00:00     8           2
#> 10   2024           1           1 2024-10-03 00:00:00    36           0
#> # ℹ 638 more rows
#> # ℹ 47 more variables: cumulative_points <dbl>, points_this_match <dbl>,
#> #   played_this_match <lgl>, first_name <chr>, last_name <chr>,
#> #   uniform_number <dbl>, sets_played <dbl>, kills <dbl>, kills_per_set <dbl>,
#> #   attack_attempts <dbl>, attack_errors <dbl>, attack_percentage <dbl>,
#> #   assists <dbl>, assists_per_set <dbl>, setting_errors <dbl>,
#> #   service_aces <dbl>, service_aces_per_set <dbl>, service_errors <dbl>, …
```
