…
## Examples

``` r
try({load_lovb_events_log(2025)})
#> Rows: 19348 Columns: 49
#> ── Column specification ────────────────────────────────────────────────────────
#> Delimiter: ","
#> chr  (13): event_type, team_involved, rally_point_winner, challenge_reason, ...
#> dbl  (26): match_id, season, set, set_duration, set_final_home_score, set_fi...
#> lgl   (3): libero_enters, challenge_approved, sanction_remark
#> dttm  (7): match_datetime, set_start_time, set_end_time, event_time, rally_s...
#> 
#> ℹ Use `spec()` to retrieve the full column specification for this data.
#> ℹ Specify the column types or set `show_col_types = FALSE` to quiet this message.
#> # A tibble: 19,348 × 49
#>    match_id season match_datetime        set set_start_time     
#>       <dbl>  <dbl> <dttm>              <dbl> <dttm>             
#>  1  2161068   2025 2025-01-09 00:30:00     1 2025-01-09 00:30:00
#>  2  2161068   2025 2025-01-09 00:30:00     1 2025-01-09 00:30:00
#>  3  2161068   2025 2025-01-09 00:30:00     1 2025-01-09 00:30:00
#>  4  2161068   2025 2025-01-09 00:30:00     1 2025-01-09 00:30:00
#>  5  2161068   2025 2025-01-09 00:30:00     1 2025-01-09 00:30:00
#>  6  2161068   2025 2025-01-09 00:30:00     1 2025-01-09 00:30:00
#>  7  2161068   2025 2025-01-09 00:30:00     1 2025-01-09 00:30:00
#>  8  2161068   2025 2025-01-09 00:30:00     1 2025-01-09 00:30:00
#>  9  2161068   2025 2025-01-09 00:30:00     1 2025-01-09 00:30:00
#> 10  2161068   2025 2025-01-09 00:30:00     1 2025-01-09 00:30:00
#> # ℹ 19,338 more rows
#> # ℹ 44 more variables: set_end_time <dttm>, set_duration <dbl>,
#> #   set_final_home_score <dbl>, set_final_away_score <dbl>, event_type <chr>,
#> #   event_time <dttm>, libero_enters <lgl>, team_involved <chr>,
#> #   libero_jersey_number <dbl>, libero_substitute_jersey_number <dbl>,
#> #   rally_start_time <dttm>, rally_end_time <dttm>, rally_point_winner <chr>,
#> #   substitute_in_jersey_number <dbl>, substitute_out_jersey_number <dbl>, …
```
