…
## Examples

``` r
try({load_schedule("mlv", 2024)})
#> # A tibble: 87 × 8
#>    season date       home_team   away_team home_team_set_wins away_team_set_wins
#>     <dbl> <date>     <chr>       <chr>                  <dbl>              <dbl>
#>  1   2024 2024-05-18 Omaha Supe… Grand Ra…                  3                  0
#>  2   2024 2024-05-15 Omaha Supe… San Dieg…                  3                  2
#>  3   2024 2024-05-15 Atlanta Vi… Grand Ra…                  2                  3
#>  4   2024 2024-05-12 Grand Rapi… Omaha Su…                  3                  2
#>  5   2024 2024-05-11 Orlando Va… Vegas Th…                  3                  0
#>  6   2024 2024-05-11 Columbus F… San Dieg…                  1                  3
#>  7   2024 2024-05-09 Omaha Supe… Columbus…                  3                  0
#>  8   2024 2024-05-09 Orlando Va… San Dieg…                  2                  3
#>  9   2024 2024-05-07 San Diego … Columbus…                  3                  1
#> 10   2024 2024-05-06 Vegas Thri… Omaha Su…                  0                  3
#> # ℹ 77 more rows
#> # ℹ 2 more variables: result <chr>, league <chr>
```
