…
## Examples

``` r
try({load_events_log("mlv", 2024)})
#> Warning: One or more parsing issues, call `problems()` on your data frame for details,
#> e.g.:
#>   dat <- vroom(...)
#>   problems(dat)
#> # A tibble: 25,558 × 52
#>    match_id season match_datetime        set set_start_time     
#>       <dbl>  <dbl> <dttm>              <dbl> <dttm>             
#>  1  2125267   2024 2024-01-25 01:00:00     1 2024-01-25 01:00:00
#>  2  2125267   2024 2024-01-25 01:00:00     1 2024-01-25 01:00:00
#>  3  2125267   2024 2024-01-25 01:00:00     1 2024-01-25 01:00:00
#>  4  2125267   2024 2024-01-25 01:00:00     1 2024-01-25 01:00:00
#>  5  2125267   2024 2024-01-25 01:00:00     1 2024-01-25 01:00:00
#>  6  2125267   2024 2024-01-25 01:00:00     1 2024-01-25 01:00:00
#>  7  2125267   2024 2024-01-25 01:00:00     1 2024-01-25 01:00:00
#>  8  2125267   2024 2024-01-25 01:00:00     1 2024-01-25 01:00:00
#>  9  2125267   2024 2024-01-25 01:00:00     1 2024-01-25 01:00:00
#> 10  2125267   2024 2024-01-25 01:00:00     1 2024-01-25 01:00:00
#> # ℹ 25,548 more rows
#> # ℹ 47 more variables: set_end_time <dttm>, set_duration <dbl>,
#> #   set_final_home_score <dbl>, set_final_away_score <dbl>, event_type <chr>,
#> #   event_time <dttm>, libero_enters <lgl>, team_involved <chr>,
#> #   libero_jersey_number <dbl>, libero_substitute_jersey_number <dbl>,
#> #   rally_start_time <dttm>, rally_end_time <dttm>, rally_point_winner <chr>,
#> #   substitute_in_jersey_number <dbl>, substitute_out_jersey_number <dbl>, …
```
